<svg xmlns="http://www.w3.org/2000/svg" xmlns:xlink="http://www.w3.org/1999/xlink" fill="#627190" width="171" height="171" viewBox="0 0 171 171">
  <defs>
    <clipPath id="clip-path">
      <rect id="Rectangle_924" data-name="Rectangle 924" width="171" height="171" transform="translate(-3948 -13872)" fill="#c8c8c8"/>
    </clipPath>
  </defs>
  <g id="Mask_Group_44" data-name="Mask Group 44" transform="translate(3948 13872)" clip-path="url(#clip-path)">
    <g id="media" transform="translate(-3948 -13856.637)">
      <g id="Group_5704" data-name="Group 5704" transform="translate(130.922 40.078)">
        <g id="Group_5703" data-name="Group 5703">
          <path id="Path_7242" data-name="Path 7242" d="M37.793,14.59a3.34,3.34,0,1,0,3.34,3.34A3.34,3.34,0,0,0,37.793,14.59Z" transform="translate(-34.453 -14.59)"/>
        </g>
      </g>
      <g id="Group_5706" data-name="Group 5706">
        <g id="Group_5705" data-name="Group 5705">
          <path id="Path_7243" data-name="Path 7243" d="M160.98,30.762H124.3L113.713,9.583a9.967,9.967,0,0,0-8.962-5.54h-38.5a9.965,9.965,0,0,0-8.962,5.54L46.7,30.762H40.08v-3.34A10.031,10.031,0,0,0,30.059,17.4h-6.68a10.031,10.031,0,0,0-10.02,10.02v3.34H10.02A10.031,10.031,0,0,0,0,40.781V134.3a10.031,10.031,0,0,0,10.02,10.02H160.98A10.031,10.031,0,0,0,171,134.3V40.781a10.031,10.031,0,0,0-10.02-10.019ZM63.262,12.57a3.322,3.322,0,0,1,2.987-1.848h38.5a3.323,3.323,0,0,1,2.988,1.848l9.1,18.191H54.166ZM20.039,27.422a3.344,3.344,0,0,1,3.34-3.34h6.68a3.344,3.344,0,0,1,3.34,3.34v3.34H20.039ZM6.68,64.127H48.912a43.484,43.484,0,0,0,0,46.791H6.68ZM85.5,50.8A36.738,36.738,0,1,1,48.762,87.538,36.738,36.738,0,0,1,85.5,50.8Zm78.82,83.5a3.344,3.344,0,0,1-3.34,3.34H10.02a3.344,3.344,0,0,1-3.34-3.34V117.6h47.5a43.391,43.391,0,0,0,62.638,0h47.5Zm0-23.379H122.088a43.426,43.426,0,0,0,0-46.758H164.32Zm0-53.437h-47.5a43.391,43.391,0,0,0-62.638,0H6.68v-16.7a3.344,3.344,0,0,1,3.34-3.34H160.98a3.344,3.344,0,0,1,3.34,3.34Z" transform="translate(0 -4.043)"/>
        </g>
      </g>
      <g id="Group_5708" data-name="Group 5708" transform="translate(72.141 13.359)">
        <g id="Group_5707" data-name="Group 5707">
          <path id="Path_7244" data-name="Path 7244" d="M42.363,7.559H22.324a3.34,3.34,0,1,0,0,6.68H42.363a3.34,3.34,0,0,0,0-6.68Z" transform="translate(-18.984 -7.559)"/>
        </g>
      </g>
      <g id="Group_5710" data-name="Group 5710" transform="translate(55.441 53.438)">
        <g id="Group_5709" data-name="Group 5709">
          <path id="Path_7245" data-name="Path 7245" d="M44.648,18.1A30.059,30.059,0,1,0,74.707,48.164,30.059,30.059,0,0,0,44.648,18.1Zm0,53.438A23.379,23.379,0,1,1,68.027,48.164,23.379,23.379,0,0,1,44.648,71.543Z" transform="translate(-14.59 -18.105)"/>
        </g>
      </g>
      <g id="Group_5712" data-name="Group 5712" transform="translate(68.801 66.797)">
        <g id="Group_5711" data-name="Group 5711">
          <path id="Path_7246" data-name="Path 7246" d="M34.8,21.621a16.718,16.718,0,0,0-16.7,16.7,3.34,3.34,0,1,0,6.68,0A10.031,10.031,0,0,1,34.8,28.3a3.34,3.34,0,0,0,0-6.68Z" transform="translate(-18.105 -21.621)"/>
        </g>
      </g>
      <g id="Group_5714" data-name="Group 5714" transform="translate(144.281 40.078)">
        <g id="Group_5713" data-name="Group 5713">
          <path id="Path_7247" data-name="Path 7247" d="M47.988,14.59h-6.68a3.34,3.34,0,1,0,0,6.68h6.68a3.34,3.34,0,0,0,0-6.68Z" transform="translate(-37.969 -14.59)"/>
        </g>
      </g>
    </g>
  </g>
</svg>
