<svg xmlns="http://www.w3.org/2000/svg" width="30" height="22.5" viewBox="0 0 30 22.5">
    <path fill="#fff" d="M10.5 28.5h15V6h-15zm-7.5-3h6V9H3zM27 9v16.5h6V9z" transform="translate(-3 -6)"/>
</svg>
